{
  "gitlab_workhorse": {
    "secret_token": "rr9PuItbhoesL7NQ73NtIQfRLtwzA42RDbDsEVu5kRA="
  },
  "gitlab_shell": {
    "secret_token": "705c35e9fb1ee5f735d5ebb871d7c0c9efad77c76762f423db68b30b13c0f417fe5640500655a11b41b1aef716de15b050d50eb540eed9ba1fd9f8526ab9df9a"
  },
  "gitlab_rails": {
    "secret_key_base": "736e3744517d28da14ab50106d0f38b4ad63935d55558451e824ff2c89ad3feb2944ea060dda8cf6dd64dc52a30390e2fc40a653723ef20c107aba129a8c188f",
    "db_key_base": "6ae5bdb214be8aa91dd1d4accaec665d94f0001f8ceedae62e208508799e2a5be406a3df1b4b51fc8e3d6ae1d153bceeecd3fe4c3515c173af148736eff57af3",
    "otp_key_base": "af4156c5dc003d464615e850d4fdaf79d634e57ea82cc4bcd3bccf7f9250954c8d48e7d182f47f7399e4ea157ed1079a73a10479a8a6f55cb9e5c0c192a4ac89"
  },
  "registry": {
    "http_secret": "4124b88e29e1bdac6d01feed14e77744e4ba49a3b1ea317a2debba2ed92949197341db903275a0c6ae36723d30f8cda3d333bc2485a82cebcf1ba6ca285bfb2b",
    "internal_certificate": "-----BEGIN CERTIFICATE-----\nMIIFBTCCAu2gAwIBAgIBADANBgkqhkiG9w0BAQsFADBGMQwwCgYDVQQGEwNVU0Ex\nDzANBgNVBAoMBkdpdExhYjESMBAGA1UECwwJQ29udGFpbmVyMREwDwYDVQQDDAhS\nZWdpc3RyeTAeFw0xNzAxMDUyMjU1MzNaFw0yNzAxMDMyMjU1MzNaMEYxDDAKBgNV\nBAYTA1VTQTEPMA0GA1UECgwGR2l0TGFiMRIwEAYDVQQLDAlDb250YWluZXIxETAP\nBgNVBAMMCFJlZ2lzdHJ5MIICIjANBgkqhkiG9w0BAQEFAAOCAg8AMIICCgKCAgEA\n0nqHCMY0dEHuHBOnIBKM/+yZnRZ69SHpK1uaoOsQx7n4OR2uzr4Y5RzjTPBFXYJW\nOKLMTLjbhLO+BPX8t1RksjH4ADL/0JtnuBZsuzCTaM8WyyzVozPaGiNm9fGe+zsf\n7EIrf9bHALINKUSJAvubIQGtURzxiGkagfxBTeow6aCcMKvQ8OCKrdK7Hp4zU7p4\nh0g+yh+/OLySEiVImKnktPAoPS9bHlUcA38UqxivMMRau8LAkXN4V3EiEzFQrMzt\n3mCpLlBYepCK14vcQOu7h7k+gCaYknnL1TLwLlBFZF465WiSS7AMU9l/CTe554a1\n9iwY8tWtwSaGGlKXspuHlKP3EIhWJWvR1P8vWqx3FHnZ0jp4vZ5gwYkNWYrsQPBE\noMcbeBDKliXQ6Kbb6HVmaVLtGOnJU9NJe3GKgiS0ibxLIYGuYeqJOaPThOZy2ZpT\nQ0C1lCR4oRPxNbn/DRwWOQwuC++8ms/qc7PY2LsVpqalgbL8ugaYADh78WoSdsXZ\nH/k63PaGZU18dWIxqq/BPriTZ1LV/52btmmdNDvQLS0PNg3G4t9hLBqfrSbA7MrY\nKDYQLcwKAgnjp/cKl1vUhCQnXA9MeYVG5HrrelPO3VmTt2lXXV1LigLopV39Kz7c\nrjU2FIdMU5AwACy2V7QICMwZ4NRg4VN7c45WnF3NivUCAwEAATANBgkqhkiG9w0B\nAQsFAAOCAgEAt7qa+KWuirXiJwdim2hOoBTOTIbuDXC4CM2kEr+h3N2hADS7bz/a\nEtrKBJigyNKsZTKYJjjPYOzGqxw7jRcMgk8+vYILp+9IGjDA8yW2VtM4iw8mmfSx\nR5VTUW36JbjkQuQCmuYFEr2f3wwfaQmqe9KqmAMQ91wKz5Rpptpittm+3wwYKnJX\nr26nwonlW8zXP2f0a9Iqy9u1ugDeLWkspR6ewtur3q4RfMkfkEQSKVCzwK+iLXr3\n0jhiP2yZgCgie1UkZSKucmRGPwOC0rNR4C5smKd9IhZAYvWF0U3WnCcl754h2lMg\no38rQJgRgUSRnXuuNTEdRFpe8dPiCc7ULb64koHiLRlIgckBAcDyie8J1WMpzblZ\njyQU4gR19fFOyuBd40jzGQ7poxxzigx9RFxpOb6zRT4zYhNuA0UZxPdeB6r/qG7S\nW03/wEpwJRRsH1bwXnr+P8Adx7LgQ7JNt4zglXzgBeDkJmWaFoU2Xx8kd6NtLS8R\nIVhfOd7kOJu3YwZbkRj41IC93ougyNSwlaWO0KgnANXm4PwiQgXpNhgBpv9F0pyF\nnuMQyw76ZoVnYGPRlgoNEtlKbzXIDCLVmxS4L7gUzytVgLwu+NXbyGPIT76sdPo4\nocXJqFAC+zW9OM7i24ssxDkPDElZXDq2CzFKgARPiXtYQgJxambfif0=\n-----END CERTIFICATE-----\n",
    "internal_key": "-----BEGIN RSA PRIVATE KEY-----\nMIIJKgIBAAKCAgEA0nqHCMY0dEHuHBOnIBKM/+yZnRZ69SHpK1uaoOsQx7n4OR2u\nzr4Y5RzjTPBFXYJWOKLMTLjbhLO+BPX8t1RksjH4ADL/0JtnuBZsuzCTaM8WyyzV\nozPaGiNm9fGe+zsf7EIrf9bHALINKUSJAvubIQGtURzxiGkagfxBTeow6aCcMKvQ\n8OCKrdK7Hp4zU7p4h0g+yh+/OLySEiVImKnktPAoPS9bHlUcA38UqxivMMRau8LA\nkXN4V3EiEzFQrMzt3mCpLlBYepCK14vcQOu7h7k+gCaYknnL1TLwLlBFZF465WiS\nS7AMU9l/CTe554a19iwY8tWtwSaGGlKXspuHlKP3EIhWJWvR1P8vWqx3FHnZ0jp4\nvZ5gwYkNWYrsQPBEoMcbeBDKliXQ6Kbb6HVmaVLtGOnJU9NJe3GKgiS0ibxLIYGu\nYeqJOaPThOZy2ZpTQ0C1lCR4oRPxNbn/DRwWOQwuC++8ms/qc7PY2LsVpqalgbL8\nugaYADh78WoSdsXZH/k63PaGZU18dWIxqq/BPriTZ1LV/52btmmdNDvQLS0PNg3G\n4t9hLBqfrSbA7MrYKDYQLcwKAgnjp/cKl1vUhCQnXA9MeYVG5HrrelPO3VmTt2lX\nXV1LigLopV39Kz7crjU2FIdMU5AwACy2V7QICMwZ4NRg4VN7c45WnF3NivUCAwEA\nAQKCAgB8E7MK3x0I89zUPFmnNIheTjH4QspVO5pi7utmtWv88Yp80Ry9z56JYdA1\nCOc7SpxdYssg51CxF+yKrCBASsXZrk9OfsIDTbmE8eNDLk2X2YzMVS/Tt7t48Sm/\nDqLz41TcR92wzQIfTNcpXreORJicioqLaI6SJbN0sSomLkqLTx0ELCVN+nCGK9YX\nJJeJYkGvLk2lhbWKUs+hVs1HAdBLQc/W0dXbObz76qxaeIC+NOJwEUzH8dQdaBn4\nSngOhfgrwbu6C689AXx3uIEs3Ep+phtMHHSQ1K/ujMq94qAlnM8Hce/cInoB7BNR\nccJr1CPsbO6AKKr3VCh11/6JUdpIGYBjJ1yISbXpLf944OWortxvJUPV18mQKJz4\nodr5dWQT/n91DH2REuZXvLNDwU7D9K83P2VPTU2gMmI3Q1SaIQpyopx7f+PG8Bkr\nHhvA1TYwZDUuc1IrQytJrpijf0YpAK+aIAztxa44o6V/7tFYOyfpdtxl9YPh8AEN\nPdEJunyfBdSDkkGPTAAILfwJFVCGpCwgCsOmQ0M8pqW/90m7pTqM3VLuA4FoK3za\nUuFw6EZ2iawdG3pk3wK+dvAqzTOzow1bMSgSvuTyJ0cjBs5uEEq60GGypVdpCSZw\n5ox8UZYpDvvnnUmFLDokxpP1FC8Vw+PKY47nMAHm66cTPfcquQKCAQEA9jubmB8F\nEJSew9HgbEk+jESXcJ0LKQbQMBvk9KQn+C6wMdNrQ5DQLM3vSKFSpxMNUNwrSIuo\nK64g87Azj8Ms4MMciJ1k9hLK7e4mKoLv1+5alBb8GgSlfcDkjKkRttPN77Q3+uaw\nXgHxIrJZCvOYf+ziP646nq0ms+NiToWQUylOQUs6xPDAeDlFIgAfFuxWHroFqZTJ\nsCQzNU4iQY4rqclEZUCjysJtA1byb4OyOLrfvhLgzsHp+5932g22SNfacsHRfpmA\nnSnzzF+BzSqrdtmzQAN6HuwYQe0dLqx/fLAMDj+d75qoVx19xcN2vktrA4cc8xaz\nfZPsV5eUvesWHwKCAQEA2tPZtmxFg9f7lwCcZm+IDW9Jl/gQQzvprEtdqvi0tf+I\no61ooQz+6no3b60EpY6oA+aFPDngK60FwSxQ9P+WGQhfbY/11fkmf4G3RCDLrtA3\ntcRA3LAUTp8GAl5vwPTPOpTskZflGaIEeDirvMtFPSgnBOZ8bLdC0tvtRlCJqBek\npLx0wj3+iuuCHJ9IZcJDNEa9hakNEFnXL8l+UuE6uyUQT/V0AinBPsUeiTOHgPuk\nhSvkQcmYh7crtyoBhUl+6J0RZL7EihMnHzYr7tz9WQAnoZdnGZHvJV/QWg8J1opW\njUrxx9VGhK7KVRRUnTwo0rOCqx4wVZKPTQYY8FM0awKCAQEAi56nDm3gaFNtZunV\n0HEDt3OZT3CtCFllqTHX9GQ0icSngck41DoD4LPwz4UyIaxq64O8Q0l1VTdKVgN+\naTEpfFUGE+zzd5iWWq2kFIzkRNNRpxEVaAdkc1byAVRIyBt3dUkCSRGPxe5h9eOd\nG9meikMe0y8O7DSQcoYnkxCnEpCkX9+xdkRxTnpi2fGpr0zZVFj0pwDIEEmmg75H\nLFbaKU8HqkYp2em++JrPoy3Q29wSzGtV78cCzvvQcOM/jjRfGJ0QFjIiPHuyUxuA\ntX5RdXXh7xVJpMkIxDEYUAPd0izc2SN3gYp3k9YUIBRCe4q2JmzxnGEt67H53H0G\nCV6IzwKCAQEAt6a4vysbJE2t7ssqd6X/DxdpMkuUinjL4jfWQtk8AMqXCJdOimt3\nvZ4YzHbuwWt6gtuC0krYYo9xlu/0ecnPVO77992sOopBzx00i87iYrKJLtmofg6g\n3GMGDhLnw48yJD48VOyf7+VTzvnw2B/Y2jzKkohFwJAFWyYMesi43wQIv+ESNLsG\n19xTdGYRwqVI9aSxBm4ccq6TtJ1skW5JdirjB9g+JlqYvm988zT18kA/kSyHAteI\nVc5at/xfDlfiVKMNp/maxS7R1JYIRQ3e6kUA/dMtSf56MGm7WPnqDc5IWYieZlIO\nPujbEpBfex60PDE/5xENC6RW9BO79mY+RQKCAQEAuYEv74sY7yBeRfSNYPXoNwdt\nySQKxITbmqFAzH5TRwEN3+LntZK231ZZx4RD70zB9MxJT5Qk4LI1FE3BYuDJ3H40\nEjGOiCP3GFA83EtobkzNKdGRVVmjUzHIHL65tkNbCs6uZoEMYndH3DziX/9EkL7c\nTjx7RM/xALmtmjetJOUeEfzs0uPvDbbYmtRhQrQq6DG85i+KUk0IVEBryMS7Ox1l\n28rj38Sr4jlSJCTk/+tY2EnfXXyI7aRGtAn/WLxdsRGzrV/S1yU2KbdnpNE6K4WN\nondFTAPcAsN9hHeUrOyH1hN7BFFx0YRPCZfZ4bcPJlqhu3KKHXwVjc6gyfAnSA==\n-----END RSA PRIVATE KEY-----\n"
  },
  "mattermost": {
    "email_invite_salt": "98e29fd2aa1b477c3d19917fdf6ee123",
    "file_public_link_salt": "bdf15bacccacea6936a7d62230a72173",
    "email_password_reset_salt": "0f06ed6cdaa331c19614b5b559583cbe",
    "sql_at_rest_encrypt_key": "973bb06db61fc64330ebf572841ad6ff"
  }
}
